…
## change cases of names into all upper case

``` r
Names$`Child's First Name`=toupper(Names$`Child's First Name`)
```

## remove duplicated rows

``` r
dplyr::distinct(Names,Ethnicity,Gender,`Child's First Name`,.keep_all= TRUE)
```

    ## # A tibble: 2,986 x 6
    ##    `Year of Birth` Gender Ethnicity          `Child's First Na~ Count  Rank
    ##              <dbl> <chr>  <chr>              <chr>              <dbl> <dbl>
    ##  1            2016 FEMALE ASIAN AND PACIFIC~ OLIVIA               172     1
    ##  2            2016 FEMALE ASIAN AND PACIFIC~ CHLOE                112     2
    ##  3            2016 FEMALE ASIAN AND PACIFIC~ SOPHIA               104     3
    ##  4            2016 FEMALE ASIAN AND PACIFIC~ EMILY                 99     4
    ##  5            2016 FEMALE ASIAN AND PACIFIC~ EMMA                  99     4
    ##  6            2016 FEMALE ASIAN AND PACIFIC~ MIA                   79     5
    ##  7            2016 FEMALE ASIAN AND PACIFIC~ CHARLOTTE             59     6
    ##  8            2016 FEMALE ASIAN AND PACIFIC~ SARAH                 57     7
    ##  9            2016 FEMALE ASIAN AND PACIFIC~ ISABELLA              56     8
    ## 10            2016 FEMALE ASIAN AND PACIFIC~ HANNAH                56     8
    ## # ... with 2,976 more rows
…
